Braid Ribbons in ggplot2 • ggbraid
…
set.seed(42)  # for reproducibility

n <- 21

df_long <- tibble(
  x = c(1:n, 1:n),
  y = c(rnorm(n), rnorm(n, mean = 0.5)),
  z = c(rep("a", n), rep("b", n))
)

df_long
#> # A tibble: 42 × 3
#>        x       y z    
#>    <int>   <dbl> <chr>
#>  1     1  1.37   a    
#>  2     2 -0.565  a    
#>  3     3  0.363  a    
#>  4     4  0.633  a    
#>  5     5  0.404  a    
#>  6     6 -0.106  a    
#>  7     7  1.51   a    
#>  8     8 -0.0947 a    
#>  9     9  2.02   a    
#> 10    10 -0.0627 a    
#> # … with 32 more rows

And let’s pivot the dataset wider so we can use it with geom_ribbon() and geom_braid().

df_wide <- pivot_wider(df_long, names_from = z, values_from = y)

df_wide
#> # A tibble: 21 × 3
#>        x       a       b
#>    <int>   <dbl>   <dbl>
#>  1     1  1.37   -1.28  
#>  2     2 -0.565   0.328 
#>  3     3  0.363   1.71  
#>  4     4  0.633   2.40  
#>  5     5  0.404   0.0695
#>  6     6 -0.106   0.243 
#>  7     7  1.51   -1.26  
#>  8     8 -0.0947  0.960 
#>  9     9  2.02   -0.140 
#> 10    10 -0.0627  0.955 
#> # … with 11 more rows
…
