US Supreme Court • ggbraid
…
court <- read_csv(
    "https://mqscores.lsa.umich.edu/media/2020/court.csv",
    col_types = cols_only(term = col_character(), med = col_double())
  ) %>%
  mutate(year = as.integer(substr(term, 1, 4))) %>%
  group_by(year) %>%
  summarize(mqscore = median(med), .groups = "drop") %>%
  arrange(desc(year))

court
#> # A tibble: 84 × 2
#>     year mqscore
#>    <int>   <dbl>
#>  1  2020   0.607
#>  2  2019   0.303
#>  3  2018   0.371
#>  4  2017   0.293
#>  5  2016  -0.058
#>  6  2015  -0.272
#>  7  2014  -0.224
#>  8  2013   0.066
#>  9  2012   0.244
#> 10  2011   0.302
#> # … with 74 more rows
#> # ℹ Use `print(n = ...)` to see more rows
…
Now it may also be valuable to include data from justices.csv, which provides the Martin-Quinn score of every justice each year since 1937.

justices <- read_csv(
    "https://mqscores.lsa.umich.edu/media/2020/justices.csv",
    col_types = cols_only(
      term = col_integer(),
      justiceName = col_character(),
      post_med = col_double()
    )
  ) %>%
  rename(year = term, name = justiceName, mqscore = post_med) %>%
  arrange(desc(year), name)

justices
#> # A tibble: 764 × 3
#>     year name        mqscore
#>    <int> <chr>         <dbl>
#>  1  2020 ACBarrett     0.981
#>  2  2020 BMKavanaugh   0.539
#>  3  2020 CThomas       3    
#>  4  2020 EKagan       -1.49 
#>  5  2020 JGRoberts     0.498
#>  6  2020 NMGorsuch     1.1  
#>  7  2020 SAAlito       2.15 
#>  8  2020 SGBreyer     -1.89 
#>  9  2020 SSotomayor   -3.94 
#> 10  2019 BMKavanaugh   0.552
#> # … with 754 more rows
#> # ℹ Use `print(n = ...)` to see more rows
…
selected_justices <- justices %>%
  filter(name %in% names(selected_justice_names)) %>%
  mutate(name = recode(name, !!! selected_justice_names))

selected_justices
#> # A tibble: 236 × 3
#>     year name     mqscore
#>    <int> <chr>      <dbl>
#>  1  2020 Thomas      3   
#>  2  2019 Thomas      3.12
#>  3  2019 Ginsburg   -2.81
#>  4  2018 Thomas      3.16
#>  5  2018 Ginsburg   -2.83
#>  6  2017 Thomas      3.12
#>  7  2017 Ginsburg   -2.79
#>  8  2016 Thomas      3.18
#>  9  2016 Ginsburg   -2.74
#> 10  2015 Thomas      3.18
#> # … with 226 more rows
#> # ℹ Use `print(n = ...)` to see more rows
…
