NBA Finals Game • ggbraid
…
library(ggplot2)
library(ggbraid)
library(ggtext)  # element_markdown()
library(dplyr)
library(tidyr)
library(glue)    # glue()
library(hms)     # as_hms()

data(hoops)

hoops
#> # A tibble: 129 × 3
#>    time   team  points
#>    <time> <chr>  <dbl>
#>  1 00'00" CLE        0
#>  2 00'00" GSW        0
#>  3 00'50" CLE        2
#>  4 01'23" CLE        2
#>  5 02'01" GSW        3
#>  6 02'20" CLE        2
#>  7 02'33" GSW        2
#>  8 02'33" GSW        1
#>  9 02'43" CLE        1
#> 10 02'43" CLE        1
#> # … with 119 more rows
…
Cumulative Score

Let’s transform hoops into hoops_score with
the cumulative score for each team over time.

hoops_score <- hoops %>%
  group_by(team) %>%
  mutate(score = cumsum(points)) %>%
  ungroup()

hoops_score
#> # A tibble: 129 × 4
#>    time   team  points score
#>    <time> <chr>  <dbl> <dbl>
#>  1 00'00" CLE        0     0
#>  2 00'00" GSW        0     0
#>  3 00'50" CLE        2     2
#>  4 01'23" CLE        2     4
#>  5 02'01" GSW        3     3
#>  6 02'20" CLE        2     6
#>  7 02'33" GSW        2     5
#>  8 02'33" GSW        1     6
#>  9 02'43" CLE        1     7
#> 10 02'43" CLE        1     8
#> # … with 119 more rows
…
hoops_wide <- hoops %>%
  group_by(time, team) %>%
  summarize(points = sum(points), .groups = "drop") %>%
  pivot_wider(names_from = team, values_from = points) %>%
  rename_with(tolower) %>%
  replace_na(list(cle = 0, gsw = 0)) %>%
  mutate(
    cle = cumsum(cle),
    gsw = cumsum(gsw),
    diff = gsw - cle
  )

hoops_wide
#> # A tibble: 108 × 4
#>    time     cle   gsw  diff
#>    <time> <dbl> <dbl> <dbl>
#>  1 00'00"     0     0     0
#>  2 00'50"     2     0    -2
#>  3 01'23"     4     0    -4
#>  4 02'01"     4     3    -1
#>  5 02'20"     6     3    -3
#>  6 02'33"     6     6     0
#>  7 02'43"     8     6    -2
#>  8 02'57"     8     8     0
#>  9 03'23"     8    10     2
#> 10 03'35"    10    10     0
#> # … with 98 more rows
…
