Average Daily Temperatures • ggbraid
…
Let’s compare the temperatures of two cities in the United States: New York, New York and San Francisco, California.

Getting Started

ggbraid provides a data frame called temps, with daily average temperatures of New York and San Francisco in 2021 as recorded by the US National Weather Service (NWS) at weather.gov.1

library(ggplot2)
library(ggbraid)
library(dplyr)
library(tidyr)

data(temps)

temps
#> # A tibble: 730 × 3
#>    city     date         avg
#>    <chr>    <date>     <dbl>
#>  1 New York 2021-01-01  36.5
#>  2 New York 2021-01-02  43.5
#>  3 New York 2021-01-03  36  
#>  4 New York 2021-01-04  39  
#>  5 New York 2021-01-05  39  
#>  6 New York 2021-01-06  37.5
#>  7 New York 2021-01-07  35.5
#>  8 New York 2021-01-08  32  
#>  9 New York 2021-01-09  30.5
#> 10 New York 2021-01-10  35  
#> # … with 720 more rows
…
Fun with Ribbons

Let’s fill the area between the two lines. We can do so with geom_ribbon() from ggplot2.

geom_ribbon() requires three aesthetics: x, ymin, and ymax. We can map date to x as we did in geom_line(). However, we’ll need to transform temps to create new variables that we can map to ymin and ymax.

We can pivot temps with pivot_wider() from the tidyr package, taking column names from city and values from avg. Call the new data frame temps_wide.

temps_wide <- temps %>%
  pivot_wider(names_from = city, values_from = avg) %>%
  rename(ny = `New York`, sf = `San Francisco`)

temps_wide
#> # A tibble: 365 × 3
#>    date          ny    sf
#>    <date>     <dbl> <dbl>
#>  1 2021-01-01  36.5  51.5
#>  2 2021-01-02  43.5  50  
#>  3 2021-01-03  36    50.5
#>  4 2021-01-04  39    54.5
#>  5 2021-01-05  39    50  
#>  6 2021-01-06  37.5  50.5
#>  7 2021-01-07  35.5  53  
#>  8 2021-01-08  32    52.5
#>  9 2021-01-09  30.5  52  
#> 10 2021-01-10  35    50.5
#> # … with 355 more rows
…
